start 294263881 0 xx17128101801.hld 2017-05-08 10:18:01
stop 294263881 0 xx17128101801.hld 2017-05-08 10:21:52    0    32 
start 294264112 0 xx17128102152.hld 2017-05-08 10:21:52
stop 294264112 0 xx17128102152.hld 2017-05-08 10:34:53 4682k 1610M
start 294264893 0 xx17128103453.hld 2017-05-08 10:34:53
stop 294264893 0 xx17128103453.hld 2017-05-08 10:47:54 4682k 1610M
start 294265674 0 xx17128104754.hld 2017-05-08 10:47:54
stop 294265674 0 xx17128104754.hld 2017-05-08 10:50:49  485k  167M
start 294269841 0 xx17128115721.hld 2017-05-08 11:57:21
stop 294269841 0 xx17128115721.hld 2017-05-08 11:57:26   18k 6508k
start 294269915 0 xx17128115835.hld 2017-05-08 11:58:35
stop 294269915 0 xx17128115835.hld 2017-05-08 12:11:36 4682k 1610M
start 294270696 0 xx17128121136.hld 2017-05-08 12:11:36
stop 294270696 0 xx17128121136.hld 2017-05-08 12:24:36 4682k 1610M
start 294271476 0 xx17128122436.hld 2017-05-08 12:24:36
stop 294271476 0 xx17128122436.hld 2017-05-08 12:37:37 4682k 1610M
start 294272257 0 xx17128123737.hld 2017-05-08 12:37:37
stop 294272257 0 xx17128123737.hld 2017-05-08 12:50:37 4682k 1610M
start 294273037 0 xx17128125037.hld 2017-05-08 12:50:37
stop 294273037 0 xx17128125037.hld 2017-05-08 12:58:00 2656k  913M
start 294284968 0 xx17128160928.hld 2017-05-08 16:09:28
stop 294284968 0 xx17128160928.hld 2017-05-08 16:22:30 4682k 1610M
start 294285750 0 xx17128162230.hld 2017-05-08 16:22:30
stop 294285750 0 xx17128162230.hld 2017-05-08 16:35:30 4682k 1610M
start 294286530 0 xx17128163530.hld 2017-05-08 16:35:30
stop 294286530 0 xx17128163530.hld 2017-05-08 16:48:31 4682k 1610M
start 294287311 0 xx17128164831.hld 2017-05-08 16:48:31
stop 294287311 0 xx17128164831.hld 2017-05-08 17:01:31 4682k 1610M
start 294288091 0 xx17128170131.hld 2017-05-08 17:01:31
stop 294288091 0 xx17128170131.hld 2017-05-08 17:14:31 4682k 1610M
start 294288871 0 xx17128171431.hld 2017-05-08 17:14:31
stop 294288871 0 xx17128171431.hld 2017-05-08 17:27:32 4682k 1610M
start 294289652 0 xx17128172732.hld 2017-05-08 17:27:32
stop 294289652 0 xx17128172732.hld 2017-05-08 17:40:32 4682k 1610M
start 294290432 0 xx17128174032.hld 2017-05-08 17:40:32
stop 294290432 0 xx17128174032.hld 2017-05-08 17:53:32 4682k 1610M
start 294291212 0 xx17128175332.hld 2017-05-08 17:53:32
stop 294291212 0 xx17128175332.hld 2017-05-08 18:06:33 4682k 1610M
start 294291993 0 xx17128180633.hld 2017-05-08 18:06:33
stop 294291993 0 xx17128180633.hld 2017-05-08 18:19:33 4682k 1610M
start 294292773 0 xx17128181933.hld 2017-05-08 18:19:33
stop 294292773 0 xx17128181933.hld 2017-05-08 18:32:33 4682k 1610M
start 294293553 0 xx17128183233.hld 2017-05-08 18:32:33
stop 294293553 0 xx17128183233.hld 2017-05-08 18:45:34 4682k 1610M
start 294294334 0 xx17128184534.hld 2017-05-08 18:45:34
stop 294294334 0 xx17128184534.hld 2017-05-08 18:58:34 4682k 1610M
start 294295114 0 xx17128185834.hld 2017-05-08 18:58:34
stop 294295114 0 xx17128185834.hld 2017-05-09 13:45:10 2035k  700M
start 294367506 0 xx17129150506.hld 2017-05-09 15:05:06
stop 294367506 0 xx17129150506.hld 2017-05-09 15:05:25    0    32 
start 294367765 0 xx17129150925.hld 2017-05-09 15:09:25
stop 294367765 0 xx17129150925.hld 2017-05-09 15:16:42    0    32 
start 294369924 0 xx17129154524.hld 2017-05-09 15:45:24
stop 294369924 0 xx17129154524.hld 2017-05-09 15:45:32    0    32 
start 294370095 0 xx17129154815.hld 2017-05-09 15:48:15
stop 294370095 0 xx17129154815.hld 2017-05-09 15:48:27    0    32 
start 294370765 0 xx17129155925.hld 2017-05-09 15:59:25
stop 294370765 0 xx17129155925.hld 2017-05-09 15:59:30    0    32 
start 294524560 0 xx17131104240.hld 2017-05-11 10:42:40
stop 294524560 0 xx17131104240.hld 2017-05-11 10:44:57    0    32 
